…
``` r
fishmip_reg <- read_sf("../Outputs/FishMIP_regional_models/FishMIP_regional_models.shp") |> 
  filter(region != "Southern Ocean")

#Checking results
fishmip_reg
```

    ## Simple feature collection with 31 features and 3 fields
    ## Geometry type: MULTIPOLYGON
    ## Dimension:     XY
    ## Bounding box:  xmin: -180 ymin: -78.74234 xmax: 180 ymax: 83.66553
    ## Geodetic CRS:  WGS 84
    ## # A tibble: 31 × 4
    ##    region                   models             nmbr_md                  geometry
    ##  * <chr>                    <chr>                <int>        <MULTIPOLYGON [°]>
    ##  1 Baltic Sea EwE           EwE                      1 (((23.5 64.5, 23.5 64.05…
    ##  2 Baltic Sea Mizer         Mizer                    1 (((20.5847 54.93254, 20.…
    ##  3 Brazil NE                EcoSpace                 1 (((-36.94482 -4.549031, …
    ##  4 Central North Pacific    ECOTRAN                  1 (((-140 10, -180 10, -18…
    ##  5 Central South Pacific    Mizer                    1 (((-168.2779 -22.09492, …
    ##  6 Chatham Rise             Atlantis, EwE, Mi…       3 (((172 -45.33333, 172 -4…
    ##  7 Cook Strait              EwE                      1 (((175.209 -40.5, 175.20…
    ##  8 East Antarctica Atlantis Atlantis                 1 (((81.87166 -53.63183, 1…
    ##  9 East Antarctica EwE      EwE                      1 (((80 -64, 80 -68.00585,…
    ## 10 East Bass Strait         EwE                      1 (((150.5 -36, 150.5 -39,…
    ## # ℹ 21 more rows
…
