…
#Checking results
fishmip_reg
```

    ## Simple feature collection with 62 features and 3 fields
    ## Geometry type: MULTIPOLYGON
    ## Dimension:     XY
    ## Bounding box:  xmin: -180 ymin: -78.74234 xmax: 180 ymax: 83.66553
    ## Geodetic CRS:  WGS 84
    ## # A tibble: 62 × 4
    ##    region                  models              nmbr_md                  geometry
    ##  * <chr>                   <chr>                 <int>        <MULTIPOLYGON [°]>
    ##  1 Arafura Sea             Atlantis                  1 (((129.2931 -8.981402, 1…
    ##  2 Aust east tuna billfish Atlantis                  1 (((141.0431 -8.981403, 1…
    ##  3 Baltic Sea EwE          EwE                       1 (((23.5 64.5, 23.5 64.05…
    ##  4 Baltic Sea Mizer        Mizer                     1 (((20.5847 54.93254, 20.…
    ##  5 Brazil NE               EcoSpace                  1 (((-36.94482 -4.549031, …
    ##  6 California Current      MICE                      1 (((-116.42 31.02, -116.4…
    ##  7 Central North Pacific   ECOTRAN                   1 (((-140 10, -180 10, -18…
    ##  8 Central South Pacific   Mizer                     1 (((-168.2779 -22.09492, …
    ##  9 Chatham Rise            Atlantis, EwE, Miz…       3 (((172 -45.33333, 172 -4…
    ## 10 Christmas Island        Atlantis                  1 (((102.077 -8.652076, 10…
    ## # ℹ 52 more rows
…
