…
#Save keys in masks folder
reg_keys |> 
  write_csv(file.path(out_folder, "FishMIP_regions_keys.csv"))

#Check keys
reg_keys
```

    ## # A tibble: 41 × 2
    ##       id region                  
    ##    <int> <chr>                   
    ##  1     1 Baltic Sea EwE          
    ##  2     2 Baltic Sea Mizer        
    ##  3     3 Brazil NE               
    ##  4     4 Central North Pacific   
    ##  5     5 Central South Pacific   
    ##  6     6 Chatham Rise            
    ##  7     7 Cook Strait             
    ##  8     8 East Antarctica Atlantis
    ##  9     9 East Antarctica EwE     
    ## 10    10 East Bass Strait        
    ## # ℹ 31 more rows
…
